(footprint "LOGO" (version 20221018) (generator bitmap2component)
  (layer "F.Cu")
  (attr board_only exclude_from_pos_files exclude_from_bom)
  (fp_text reference "G***" (at 0 0) (layer "F.SilkS")
      (effects (font (size 1.5 1.5) (thickness 0.3)))
    (tstamp e5fc6cef-4afa-457b-85cd-37ad2d6cfbc4)
  )
  (fp_text value "LOGO" (at 0.75 0) (layer "F.SilkS") hide
      (effects (font (size 1.5 1.5) (thickness 0.3)))
    (tstamp 98144f15-2496-4b24-8c8e-c537be77b5a9)
  )
  (fp_poly
    (pts
      (xy 0.248420 -2.463467)
      (xy 0.681496 -2.383166)
      (xy 1.097713 -2.230487)
      (xy 1.165741 -2.197499)
      (xy 1.370305 -2.069665)
      (xy 1.591622 -1.890127)
      (xy 1.810586 -1.678259)
      (xy 2.008090 -1.453435)
      (xy 2.165027 -1.235029)
      (xy 2.230440 -1.117885)
      (xy 2.377835 -0.727623)
      (xy 2.459990 -0.311698)
      (xy 2.477111 0.114297)
      (xy 2.429401 0.534765)
      (xy 2.317065 0.934112)
      (xy 2.200182 1.192558)
      (xy 1.994718 1.502772)
      (xy 1.727693 1.793315)
      (xy 1.417446 2.048514)
      (xy 1.082316 2.252695)
      (xy 0.834321 2.359881)
      (xy 0.616178 2.416041)
      (xy 0.348146 2.453227)
      (xy 0.056477 2.470630)
      (xy -0.232574 2.467440)
      (xy -0.492754 2.442849)
      (xy -0.666193 2.406132)
      (xy -0.954474 2.305481)
      (xy -1.204895 2.180043)
      (xy -1.441410 2.015202)
      (xy -1.687976 1.796342)
      (xy -1.725229 1.760000)
      (xy -2.015668 1.435161)
      (xy -2.231219 1.101940)
      (xy -2.376925 0.748560)
      (xy -2.457825 0.363248)
      (xy -2.472022 0.123275)
      (xy -2.019043 0.123275)
      (xy -1.961257 0.485004)
      (xy -1.837111 0.827362)
      (xy -1.653384 1.142462)
      (xy -1.416855 1.422415)
      (xy -1.134303 1.659332)
      (xy -0.812509 1.845324)
      (xy -0.458251 1.972504)
      (xy -0.078308 2.032982)
      (xy -0.040000 2.035021)
      (xy 0.051766 2.031119)
      (xy 0.189813 2.016573)
      (xy 0.320000 1.998205)
      (xy 0.665410 1.906858)
      (xy 0.996354 1.750270)
      (xy 1.299654 1.539105)
      (xy 1.562135 1.284028)
      (xy 1.770619 0.995704)
      (xy 1.900282 0.719198)
      (xy 1.998256 0.328156)
      (xy 2.020145 -0.061309)
      (xy 1.969539 -0.440406)
      (xy 1.850029 -0.800343)
      (xy 1.665204 -1.132330)
      (xy 1.418655 -1.427573)
      (xy 1.113970 -1.677283)
      (xy 0.862141 -1.823192)
      (xy 0.544283 -1.980000)
      (xy 0.022141 -1.979614)
      (xy -0.205727 -1.977605)
      (xy -0.373508 -1.970346)
      (xy -0.501064 -1.955397)
      (xy -0.608257 -1.930324)
      (xy -0.714952 -1.892688)
      (xy -0.727676 -1.887610)
      (xy -1.068296 -1.708686)
      (xy -1.370265 -1.466641)
      (xy -1.625003 -1.172491)
      (xy -1.823926 -0.837248)
      (xy -1.958454 -0.471927)
      (xy -2.003688 -0.249936)
      (xy -2.019043 0.123275)
      (xy -2.472022 0.123275)
      (xy -2.479409 -0.001597)
      (xy -2.445925 -0.434557)
      (xy -2.342260 -0.833922)
      (xy -2.165938 -1.205539)
      (xy -1.914486 -1.555257)
      (xy -1.743923 -1.739729)
      (xy -1.475167 -1.983757)
      (xy -1.211642 -2.166609)
      (xy -0.930152 -2.301885)
      (xy -0.616160 -2.400983)
      (xy -0.188477 -2.469902)
    )

    (stroke (width 0.000000) (type solid)) (fill solid) (layer "F.SilkS") (tstamp 5ebd26b0-2615-42ed-863e-121733ade97d))
  (fp_poly
    (pts
      (xy 0.274418 -1.273999)
      (xy 0.464371 -1.227323)
      (xy 0.720821 -1.099505)
      (xy 0.932792 -0.912885)
      (xy 1.096279 -0.677662)
      (xy 1.207282 -0.404040)
      (xy 1.261799 -0.102218)
      (xy 1.255826 0.217602)
      (xy 1.185362 0.545219)
      (xy 1.173709 0.580687)
      (xy 1.077746 0.770510)
      (xy 0.928754 0.959552)
      (xy 0.748310 1.126380)
      (xy 0.557989 1.249558)
      (xy 0.459604 1.290096)
      (xy 0.190266 1.356315)
      (xy -0.053285 1.371537)
      (xy -0.286361 1.341978)
      (xy -0.560984 1.248377)
      (xy -0.789663 1.091648)
      (xy -0.965606 0.877644)
      (xy -1.062301 0.673478)
      (xy -1.105205 0.543930)
      (xy -1.114902 0.463535)
      (xy -1.080146 0.420568)
      (xy -0.989691 0.403302)
      (xy -0.832291 0.400012)
      (xy -0.800000 0.400000)
      (xy -0.640509 0.401694)
      (xy -0.544916 0.409435)
      (xy -0.497149 0.427209)
      (xy -0.481132 0.459004)
      (xy -0.480000 0.479368)
      (xy -0.454436 0.558060)
      (xy -0.390709 0.656869)
      (xy -0.366720 0.685520)
      (xy -0.282862 0.764516)
      (xy -0.191498 0.806659)
      (xy -0.058673 0.826650)
      (xy -0.036720 0.828378)
      (xy 0.180562 0.815110)
      (xy 0.351630 0.738866)
      (xy 0.477341 0.598541)
      (xy 0.558552 0.393031)
      (xy 0.596119 0.121229)
      (xy 0.599121 0.008406)
      (xy 0.582181 -0.269325)
      (xy 0.527214 -0.479795)
      (xy 0.430485 -0.628019)
      (xy 0.288261 -0.719014)
      (xy 0.096807 -0.757796)
      (xy 0.027099 -0.760000)
      (xy -0.112589 -0.755325)
      (xy -0.204958 -0.733360)
      (xy -0.282506 -0.682195)
      (xy -0.344000 -0.624001)
      (xy -0.441502 -0.508321)
      (xy -0.476880 -0.421881)
      (xy -0.449003 -0.371026)
      (xy -0.391156 -0.360000)
      (xy -0.357165 -0.351908)
      (xy -0.360866 -0.321338)
      (xy -0.408387 -0.258854)
      (xy -0.505857 -0.155021)
      (xy -0.559998 -0.100003)
      (xy -0.817685 0.159995)
      (xy -1.048843 -0.068751)
      (xy -1.156083 -0.178142)
      (xy -1.236887 -0.266795)
      (xy -1.277626 -0.319544)
      (xy -1.280000 -0.325966)
      (xy -1.246288 -0.354022)
      (xy -1.196966 -0.367218)
      (xy -1.135075 -0.401997)
      (xy -1.079610 -0.494211)
      (xy -1.041964 -0.593394)
      (xy -0.934331 -0.808641)
      (xy -0.772138 -1.005660)
      (xy -0.577273 -1.161239)
      (xy -0.441873 -1.229762)
      (xy -0.229372 -1.281633)
      (xy 0.020527 -1.296348)
    )

    (stroke (width 0.000000) (type solid)) (fill solid) (layer "F.SilkS") (tstamp 75c3d954-2fae-4ac5-b775-1b022ed05338))
)
